<?xml version="1.0" encoding="utf-8"?>
<!-- Generator: Adobe Illustrator 17.0.0, SVG Export Plug-In . SVG Version: 6.00 Build 0)  -->
<!DOCTYPE svg PUBLIC "-//W3C//DTD SVG 1.1//EN" "http://www.w3.org/Graphics/SVG/1.1/DTD/svg11.dtd">
<svg version="1.1" id="Слой_1" xmlns="http://www.w3.org/2000/svg" xmlns:xlink="http://www.w3.org/1999/xlink" x="0px" y="0px"
	 width="20.758px" height="20.759px" viewBox="0 0 20.758 20.759" enable-background="new 0 0 20.758 20.759" xml:space="preserve">
<g>
	<path fill="#333E48" d="M2.595,3.243V0.649C2.595,0.29,2.885,0,3.244,0c0.359,0,0.649,0.29,0.649,0.649v2.595
		c0,0.359-0.29,0.649-0.649,0.649C2.885,3.892,2.595,3.602,2.595,3.243z M13.623,3.892c0.358,0,0.649-0.29,0.649-0.649V0.649
		C14.272,0.29,13.981,0,13.623,0c-0.359,0-0.649,0.29-0.649,0.649v2.595C12.974,3.602,13.264,3.892,13.623,3.892z M20.759,15.569
		c0,2.866-2.324,5.19-5.19,5.19c-2.866,0-5.19-2.324-5.19-5.19c0-2.866,2.324-5.189,5.19-5.189
		C18.435,10.379,20.759,12.703,20.759,15.569z M19.461,15.569c0-2.146-1.746-3.892-3.892-3.892c-2.146,0-3.892,1.746-3.892,3.892
		c0,2.146,1.746,3.892,3.892,3.892C17.715,19.461,19.461,17.715,19.461,15.569z M5.19,7.784H2.595v2.595H5.19V7.784z M2.595,14.271
		H5.19v-2.595H2.595V14.271z M6.487,10.379h2.595V7.784H6.487V10.379z M6.487,14.271h2.595v-2.595H6.487V14.271z M1.298,15.44V6.487
		h14.271v2.595h1.297v-5.06c0-0.788-0.629-1.427-1.405-1.427H14.92v0.649c0,0.715-0.582,1.297-1.297,1.297
		c-0.716,0-1.297-0.583-1.297-1.297V2.595H4.541v0.649c0,0.715-0.582,1.297-1.297,1.297c-0.716,0-1.297-0.583-1.297-1.297V2.595
		h-0.54C0.629,2.595,0,3.233,0,4.021V15.44c0,0.785,0.629,1.427,1.406,1.427h7.676v-1.298H1.406
		C1.347,15.569,1.298,15.508,1.298,15.44z M12.974,10.379V7.784h-2.595v2.595H12.974z M17.515,15.569h-1.946v-1.946
		c0-0.358-0.29-0.648-0.649-0.648s-0.649,0.29-0.649,0.648v2.595c0,0.358,0.29,0.649,0.649,0.649h2.595
		c0.359,0,0.649-0.29,0.649-0.649C18.164,15.859,17.874,15.569,17.515,15.569z"/>
</g>
</svg>
