<?xml version="1.0" encoding="utf-8"?>
<!-- Generator: Adobe Illustrator 17.0.1, SVG Export Plug-In . SVG Version: 6.00 Build 0)  -->
<!DOCTYPE svg PUBLIC "-//W3C//DTD SVG 1.1//EN" "http://www.w3.org/Graphics/SVG/1.1/DTD/svg11.dtd">
<svg version="1.1" id="Слой_1" xmlns="http://www.w3.org/2000/svg" xmlns:xlink="http://www.w3.org/1999/xlink" x="0px" y="0px"
	 width="26.698px" height="24.811px" viewBox="0 0 26.698 24.811" enable-background="new 0 0 26.698 24.811" xml:space="preserve">
<g>
	<g>
		<path fill="#D9272E" d="M11.495,1.094v4.455c0,0.604-0.49,1.094-1.094,1.094c-2.156,0-3.328,2.211-3.491,6.575h3.491
			c0.604,0,1.094,0.49,1.094,1.094v9.407c0,0.604-0.49,1.094-1.094,1.094H1.094C0.489,24.811,0,24.321,0,23.718v-9.407
			c0-2.092,0.211-4.012,0.626-5.706c0.426-1.738,1.08-3.257,1.942-4.516C3.456,2.795,4.566,1.78,5.869,1.072
			C7.18,0.361,8.705,0,10.401,0C11.005,0,11.495,0.489,11.495,1.094z M25.604,6.643c0.604,0,1.094-0.49,1.094-1.094V1.094
			C26.698,0.49,26.208,0,25.604,0c-1.695,0-3.22,0.361-4.531,1.072c-1.303,0.707-2.414,1.723-3.302,3.016
			c-0.862,1.259-1.516,2.778-1.942,4.516c-0.415,1.695-0.626,3.615-0.626,5.706v9.407c0,0.604,0.49,1.094,1.094,1.094h9.307
			c0.604,0,1.094-0.49,1.094-1.094v-9.407c0-0.604-0.49-1.094-1.094-1.094h-3.441C22.323,8.853,23.478,6.643,25.604,6.643z"/>
	</g>
</g>
</svg>
