<?xml version="1.0" encoding="UTF-8" standalone="no"?>
<!-- Created with Inkscape (http://www.inkscape.org/) -->

<svg
   xmlns:dc="http://purl.org/dc/elements/1.1/"
   xmlns:cc="http://creativecommons.org/ns#"
   xmlns:rdf="http://www.w3.org/1999/02/22-rdf-syntax-ns#"
   xmlns:svg="http://www.w3.org/2000/svg"
   xmlns="http://www.w3.org/2000/svg"
   xmlns:sodipodi="http://sodipodi.sourceforge.net/DTD/sodipodi-0.dtd"
   xmlns:inkscape="http://www.inkscape.org/namespaces/inkscape"
   width="150"
   height="150"
   viewBox="0 0 39.6875 39.6875"
   version="1.1"
   id="svg5526"
   inkscape:version="0.92.2 (5c3e80d, 2017-08-06)"
   sodipodi:docname="social-facebook-gray.svg">
  <defs
     id="defs5520" />
  <sodipodi:namedview
     id="base"
     pagecolor="#ffffff"
     bordercolor="#666666"
     borderopacity="1.0"
     inkscape:pageopacity="0.0"
     inkscape:pageshadow="2"
     inkscape:zoom="0.35"
     inkscape:cx="400"
     inkscape:cy="560.00001"
     inkscape:document-units="mm"
     inkscape:current-layer="layer1"
     showgrid="false"
     fit-margin-top="0"
     fit-margin-left="0"
     fit-margin-right="0"
     fit-margin-bottom="0"
     showborder="false"
     inkscape:window-width="1391"
     inkscape:window-height="828"
     inkscape:window-x="69"
     inkscape:window-y="116"
     inkscape:window-maximized="0"
     units="px" />
  <metadata
     id="metadata5523">
    <rdf:RDF>
      <cc:Work
         rdf:about="">
        <dc:format>image/svg+xml</dc:format>
        <dc:type
           rdf:resource="http://purl.org/dc/dcmitype/StillImage" />
        <dc:title></dc:title>
      </cc:Work>
    </rdf:RDF>
  </metadata>
  <g
     inkscape:label="Layer 1"
     inkscape:groupmode="layer"
     id="layer1"
     transform="translate(-4.8060001e-7,-257.3125)">
    <g
       transform="matrix(1.41149,0,0,1.4114624,12.374618,268.74629)"
       id="layer1-1"
       inkscape:label="Layer 1">
      <g
         inkscape:label="Layer 1"
         id="layer1-0"
         transform="translate(-100.54167,-142.875)">
        <g
           transform="translate(228.29762,213.17857)"
           id="layer1-5"
           inkscape:label="Layer 1">
          <path
             inkscape:connector-curvature="0"
             id="path3564"
             style="fill:#ab47bc;fill-opacity:1;fill-rule:nonzero;stroke:none;stroke-width:0.35277778"
             d="m -136.52301,-50.286341 h 28.11745 v -28.117795 h -28.11745 z" />
          <g
             transform="matrix(0.35277777,0,0,-0.35277777,-122.45077,-67.134262)"
             id="g3566">
            <path
               inkscape:connector-curvature="0"
               id="path3568"
               style="fill:#ffffff;fill-opacity:1;fill-rule:nonzero;stroke:none"
               d="m 0,0 c -4.456,0 -8.07,-3.5 -8.07,-7.821 0,-4.318 3.614,-7.82 8.07,-7.82 4.458,0 8.072,3.502 8.072,7.82 C 8.072,-3.5 4.458,0 0,0 m 15.512,-4.808 h -3.535 c 0.335,-1.095 0.516,-2.25 0.516,-3.45 0,-6.682 -5.594,-12.102 -12.493,-12.102 -6.897,0 -12.492,5.42 -12.492,12.102 0,1.2 0.183,2.355 0.517,3.45 h -3.689 v -16.976 c 0,-0.88 0.718,-1.595 1.596,-1.595 h 27.984 c 0.88,0 1.596,0.715 1.596,1.595 z M 9.145,7.723 c -0.997,0 -1.81,-0.816 -1.81,-1.812 V 1.582 c 0,-0.996 0.813,-1.81 1.81,-1.81 h 4.541 c 0.995,0 1.809,0.814 1.809,1.81 v 4.329 c 0,0.996 -0.814,1.812 -1.809,1.812 z m -24.117,4.463 h 29.87 c 2.837,0 5.158,-2.321 5.158,-5.159 v -29.869 c 0,-2.837 -2.321,-5.156 -5.158,-5.156 h -29.87 c -2.837,0 -5.16,2.319 -5.16,5.156 V 7.027 c 0,2.838 2.323,5.159 5.16,5.159" />
          </g>
        </g>
        <g
           transform="translate(618.36905,288.77381)"
           id="layer1-2"
           inkscape:label="Layer 1">
          <path
             inkscape:connector-curvature="0"
             id="path3598"
             style="fill:#42a5f5;fill-opacity:1;fill-rule:nonzero;stroke:none;stroke-width:0.35277778"
             d="m -498.47699,-125.88193 h -28.11745 v -28.11709 h 28.11745 z" />
          <g
             transform="matrix(0.35277777,0,0,-0.35277777,-518.09567,-147.24393)"
             id="g3600">
            <path
               inkscape:connector-curvature="0"
               id="path3602"
               style="fill:#ffffff;fill-opacity:1;fill-rule:nonzero;stroke:none"
               d="m 0,0 c 2.752,0 4.984,-2.235 4.984,-4.983 0,-2.751 -2.232,-4.985 -4.984,-4.985 -2.762,0 -4.99,2.234 -4.99,4.985 C -4.99,-2.235 -2.762,0 0,0 m -4.307,-13.749 h 8.609 v -27.656 h -8.609 z" />
          </g>
          <g
             transform="matrix(0.35277777,0,0,-0.35277777,-514.67422,-142.39369)"
             id="g3604">
            <path
               inkscape:connector-curvature="0"
               id="path3606"
               style="fill:#ffffff;fill-opacity:1;fill-rule:nonzero;stroke:none"
               d="m 0,0 h 8.244 v -3.78 h 0.117 c 1.147,2.176 3.955,4.467 8.139,4.467 8.702,0 10.312,-5.725 10.312,-13.174 v -15.169 h -8.593 v 13.446 c 0,3.21 -0.063,7.336 -4.47,7.336 -4.477,0 -5.159,-3.493 -5.159,-7.099 V -27.656 H 0 Z" />
          </g>
        </g>
        <g
           transform="matrix(0.05491601,0,0,0.05491797,91.774835,134.77433)"
           id="g4127">
          <rect
             y="0"
             x="0"
             width="512"
             style="fill:#ece000;fill-opacity:1;fill-rule:nonzero;stroke:none"
             ry="0"
             rx="0"
             id="rect2987"
             height="512" />
          <path
             inkscape:connector-curvature="0"
             style="color:#000000;font-style:normal;font-variant:normal;font-weight:normal;font-stretch:normal;font-size:medium;line-height:normal;font-family:Sans;-inkscape-font-specification:Sans;text-indent:0;text-align:start;text-decoration:none;text-decoration-line:none;letter-spacing:normal;word-spacing:normal;text-transform:none;writing-mode:lr-tb;direction:ltr;baseline-shift:baseline;text-anchor:start;display:inline;overflow:visible;visibility:visible;fill:#ffffff;fill-opacity:1;stroke:none;stroke-width:10;marker:none;enable-background:accumulate"
             id="path12604"
             d="m 254.23192,67.745656 c -24.1553,0.16536 -49.1333,6.57616 -68.7188,22.0625 -14.667,11.577654 -26.19916,26.921164 -33.46871,44.062504 -0.0109,0.0415 -0.0213,0.0832 -0.0312,0.125 -6.92358,17.66206 -6.28241,36.45908 -5.34375,53.875 4.9e-4,0.0106 -4.9e-4,0.0207 0,0.0312 0.57046,12.24111 1.9192,24.09182 0.78125,35.34375 -0.0919,0.43802 -0.096,0.54776 -0.15625,0.8125 -5.44516,0.98701 -11.372,0.62902 -17.25,-0.5 -0.0312,-2.9e-4 -0.0625,-2.9e-4 -0.0937,0 -4.02639,-0.69306 -8.32797,-2.35229 -13.1875,-3.71875 -0.0828,-0.023 -0.16615,-0.0438 -0.25,-0.0625 -4.71633,-1.07824 -9.35242,0.29501 -12.90625,2.9375 -0.0457,0.0296 -0.10985,0.0635 -0.15625,0.0937 -0.071,0.054 -0.14865,0.10124 -0.21875,0.15625 -2.89265,1.9156 -6.854978,5.13197 -7.062498,10.71875 -0.009,0.36655 0.0225,0.73407 0.0937,1.09375 0.62464,3.28299 2.64407,5.68343 4.437498,7.25 1.79342,1.56657 3.48778,2.60119 4.53125,3.40625 0.0814,0.0651 0.16474,0.12762 0.25,0.1875 8.79695,5.93514 18.53281,8.54299 27,11.84375 0.009,0.003 0.0225,-0.003 0.0312,0 5.86205,2.59731 10.95592,6.63609 12.125,11.71875 1.45977,6.42713 -1.2468,13.80558 -4.78125,20.96875 -0.004,0.009 0.004,0.0226 0,0.0312 -9.53334,18.98565 -23.69089,35.49609 -41.093748,47.59375 -9.12374,6.29511 -19.416525,10.9945 -30.156305,13.9064 -0.148149,0.0453 -0.294192,0.0974 -0.4375,0.15625 -2.20374,0.82986 -7.42924,1.37247 -10.71875,6.375 -0.233793,0.34937 -0.423282,0.72835 -0.5625,1.125 -1.10923,3.2168 0.1562,6.67058 1.71875,8.5625 1.4921,1.80662 3.15667,2.85786 4.59375,3.625 0.0735,0.043 0.1451,0.0824 0.21875,0.125 9.04276,5.22608 18.918595,7.49157 27.937505,9.8125 0.0415,0.0109 0.0832,0.0213 0.125,0.0312 6.4981,1.47977 12.488738,2.27029 17.374998,4.375 0.23923,0.40234 0.72852,2.05832 1.875,4.8125 1.60151,4.99968 2.32952,10.9037 4.1875,17.09375 0.50804,1.71342 2.00225,3.09556 3.75,3.46875 4.104,0.87193 6.36119,-0.53617 6.71875,-0.5625 0.16758,-0.0124 0.33452,-0.0333 0.5,-0.0625 15.10019,-2.6468 30.16835,-4.99383 43.99996,-1.5 0.01,0.003 0.021,-0.003 0.031,0 14.516,3.82363 27.1309,13.91446 41.3438,22.59375 0.025,0.0154 0.037,0.0471 0.062,0.0625 v -0.0312 c 9.4342,5.98646 20.3393,11.8485 32.9375,12.28125 v 0.0312 c 0.042,10e-4 0.083,-10e-4 0.125,0 9.5155,0.53896 18.855,-0.0657 27.9687,-0.6875 0.0521,8.1e-4 0.1042,8.1e-4 0.1563,0 7.8038,-0.77302 15.3807,-3.37002 22,-7.625 0.094,-0.0535 0.1876,-0.10258 0.2812,-0.15625 14.9452,-8.56344 28.2258,-18.88234 42.7813,-25.34375 0.021,-0.008 0.042,-0.0237 0.062,-0.0312 4.7208,-1.71157 10.6189,-1.61506 17.1875,-2.0625 0.062,-0.002 0.125,0.002 0.1875,0 12.0527,-0.3721 24.1283,0.27414 36.0937,1.875 0.41448,0.0522 0.83552,0.0522 1.25,0 1.5714,-0.1864 3.2889,-1.24155 4.125,-2.3125 0.8361,-1.07095 1.077,-1.94318 1.25,-2.5625 0.3462,-1.23864 0.667,-1.83102 0.094,-0.8125 0.1817,-0.31606 0.3287,-0.65205 0.4375,-1 2.1971,-7.28002 3.3925,-13.86797 6.9375,-17.96875 1.5929,-1.55716 4.334,-2.33886 7.4375,-2.28125 0.22952,0.005 0.45941,-0.005 0.6875,-0.0312 10.4024,-1.23133 19.8052,-4.98696 28.7188,-8.1875 0.10556,-0.0382 0.20984,-0.0799 0.3126,-0.12505 3.3113,-1.44341 8.2453,-3.09963 11.625,-7.84375 0.018,-0.0254 0.044,-0.0369 0.062,-0.0625 l -0.031,-0.0312 c 2.8428,-3.9725 1.523,-9.42469 -2.5,-11.90625 l 0.062,-0.0625 c -0.1275,-0.0867 -0.2474,-0.13595 -0.375,-0.21875 -0.034,-0.0186 -0.059,-0.0444 -0.094,-0.0625 v 0.0312 c -4.8259,-3.10006 -9.6612,-3.53092 -12.7187,-4.65625 -0.0621,-0.0221 -0.1246,-0.0429 -0.1875,-0.0625 -20.6872,-6.63568 -38.5778,-20.92111 -51.9375,-38.3125 -7.4172,-9.69129 -13.6899,-20.22202 -17.8438,-31.46875 -0.014,-0.041 -0.018,-0.084 -0.031,-0.125 -1.6262,-4.88353 -1.7077,-10.20902 0.6875,-13.4375 0.0317,-0.0308 0.0631,-0.062 0.094,-0.0937 3.7366,-5.36839 10.5935,-8.81878 17.9063,-11.53125 0.03,-0.0104 0.064,-0.0208 0.094,-0.0312 8.0819,-2.81157 16.9263,-6.08686 24.2187,-12.5625 0.0318,-0.0308 0.0631,-0.062 0.094,-0.0937 1.1283,-1.06695 2.4852,-2.45602 3.5,-4.53125 1.0149,-2.07523 1.4961,-5.31032 0.1563,-8.125 3e-5,-0.0104 3e-5,-0.0208 0,-0.0312 -2.1044,-4.33549 -5.774,-6.5662 -8.5,-8.1875 -0.0103,-3e-5 -0.0207,-3e-5 -0.031,0 -4.5673,-2.66592 -9.8816,-2.83887 -14.5,-1.34375 -0.01,0.003 -0.021,-0.003 -0.031,0 -0.031,0.0101 -0.063,0.021 -0.094,0.0312 -4.9892,1.51835 -9.0624,3.33391 -12.8438,3.8125 -0.0839,0.0187 -0.16722,0.0395 -0.25,0.0625 -5.3737,0.95777 -10.5773,1.18779 -14.625,-0.3125 -0.038,-0.60649 -0.057,-1.79013 -0.2187,-3.25 h 0.031 c -0.2988,-8.9153 0.4565,-18.10604 0.5937,-27.625 3e-4,-0.0212 -3e-4,-0.0413 0,-0.0625 0.4112,-14.46318 0.9948,-29.35295 -1.125,-44.34375 -0.009,-0.0731 -0.0191,-0.14607 -0.031,-0.21875 -4.6154,-25.28753 -20.687,-47.06736 -41.0625,-61.562504 -14.8121,-10.50987 -32.3972,-16.37581 -50.25,-18.03125 -0.01,-0.001 -0.021,0.001 -0.031,0 -5.9912,-0.60487 -11.9741,-0.81945 -17.9375,-0.75 z" />
        </g>
        <g
           transform="translate(497.41666,326.57143)"
           id="layer1-7"
           inkscape:label="Layer 1">
          <path
             inkscape:connector-curvature="0"
             id="path3608"
             style="fill:#42a5f5;fill-opacity:1;fill-rule:nonzero;stroke:none;stroke-width:0.35277778"
             d="m -377.52461,-163.67919 h -28.11744 V -191.797 h 28.11744 z" />
          <g
             transform="matrix(0.35277777,0,0,-0.35277777,-384.40836,-182.18863)"
             id="g3610">
            <path
               inkscape:connector-curvature="0"
               id="path3612"
               style="fill:#ffffff;fill-opacity:1;fill-rule:nonzero;stroke:none"
               d="m 0,0 c -1.497,-0.664 -3.106,-1.113 -4.793,-1.314 1.723,1.033 3.048,2.667 3.669,4.617 -1.61,-0.957 -3.396,-1.652 -5.297,-2.026 -1.524,1.623 -3.693,2.636 -6.093,2.636 -4.609,0 -8.346,-3.737 -8.346,-8.346 0,-0.655 0.074,-1.29 0.216,-1.901 -6.935,0.347 -13.084,3.669 -17.201,8.72 -0.718,-1.234 -1.129,-2.667 -1.129,-4.197 0,-2.894 1.472,-5.45 3.711,-6.945 -1.367,0.042 -2.654,0.42 -3.779,1.044 v -0.105 c 0,-4.043 2.877,-7.417 6.693,-8.184 -0.699,-0.189 -1.438,-0.294 -2.199,-0.294 -0.536,0 -1.061,0.054 -1.569,0.152 1.061,-3.316 4.143,-5.728 7.794,-5.797 -2.854,-2.238 -6.452,-3.572 -10.365,-3.572 -0.672,0 -1.336,0.041 -1.989,0.116 3.693,-2.365 8.08,-3.747 12.795,-3.747 15.349,0 23.743,12.714 23.743,23.743 0,0.361 -0.01,0.721 -0.023,1.081 C -2.535,-3.144 -1.121,-1.674 0,0" />
          </g>
        </g>
        <g
           id="g5312"
           transform="matrix(0.26458333,0,0,0.26458333,91.774833,134.77433)">
          <g
             transform="scale(0.23318357,0.23319186)"
             id="g10">
            <rect
               id="rect2"
               height="455.73099"
               width="455.73099"
               style="fill:#1bd741"
               y="0"
               x="0" />
            <g
               id="g8">
              <path
                 inkscape:connector-curvature="0"
                 id="path4"
                 d="M 68.494,387.41 90.817,308.126 C 76.462,283.739 68.904,255.992 68.904,227.488 c 0,-87.765 71.402,-159.167 159.167,-159.167 87.765,0 159.166,71.402 159.166,159.167 0,87.765 -71.401,159.167 -159.166,159.167 -27.347,0 -54.125,-7 -77.814,-20.292 z m 85.943,-50.004 4.872,2.975 c 20.654,12.609 44.432,19.274 68.762,19.274 72.877,0 132.166,-59.29 132.166,-132.167 0,-72.877 -59.289,-132.167 -132.166,-132.167 -72.877,0 -132.167,59.29 -132.167,132.167 0,25.393 7.217,50.052 20.869,71.311 l 3.281,5.109 -12.855,45.658 z"
                 style="fill:#ffffff" />
              <path
                 inkscape:connector-curvature="0"
                 id="path6"
                 d="m 183.359,153.407 -10.328,-0.563 c -3.244,-0.177 -6.426,0.907 -8.878,3.037 -5.007,4.348 -13.013,12.754 -15.472,23.708 -3.667,16.333 2,36.333 16.667,56.333 14.667,20 42,52 90.333,65.667 15.575,4.404 27.827,1.435 37.28,-4.612 7.487,-4.789 12.648,-12.476 14.508,-21.166 l 1.649,-7.702 c 0.524,-2.448 -0.719,-4.932 -2.993,-5.98 L 271.22,246.04 c -2.266,-1.044 -4.953,-0.384 -6.477,1.591 l -13.703,17.764 c -1.035,1.342 -2.807,1.874 -4.407,1.312 -9.384,-3.298 -40.818,-16.463 -58.066,-49.687 -0.748,-1.441 -0.562,-3.19 0.499,-4.419 l 13.096,-15.15 c 1.338,-1.547 1.676,-3.722 0.872,-5.602 l -15.046,-35.201 c -0.801,-1.874 -2.596,-3.13 -4.629,-3.241 z"
                 style="fill:#ffffff" />
            </g>
          </g>
          <g
             transform="translate(0,-349.45823)"
             id="g12" />
          <g
             transform="translate(0,-349.45823)"
             id="g14" />
          <g
             transform="translate(0,-349.45823)"
             id="g16" />
          <g
             transform="translate(0,-349.45823)"
             id="g18" />
          <g
             transform="translate(0,-349.45823)"
             id="g20" />
          <g
             transform="translate(0,-349.45823)"
             id="g22" />
          <g
             transform="translate(0,-349.45823)"
             id="g24" />
          <g
             transform="translate(0,-349.45823)"
             id="g26" />
          <g
             transform="translate(0,-349.45823)"
             id="g28" />
          <g
             transform="translate(0,-349.45823)"
             id="g30" />
          <g
             transform="translate(0,-349.45823)"
             id="g32" />
          <g
             transform="translate(0,-349.45823)"
             id="g34" />
          <g
             transform="translate(0,-349.45823)"
             id="g36" />
          <g
             transform="translate(0,-349.45823)"
             id="g38" />
          <g
             transform="translate(0,-349.45823)"
             id="g40" />
        </g>
        <g
           transform="translate(128.88988)"
           id="layer1-59"
           inkscape:label="Layer 1">
          <g
             id="g6939"
             transform="translate(-196.54097,70.615428)">
            <path
               d="M 187.47594,92.209425 H 159.4929 V 64.226386 h 27.98304 z"
               style="fill:#545454;fill-opacity:1;fill-rule:nonzero;stroke:none;stroke-width:0.35277778"
               id="path3552"
               inkscape:connector-curvature="0" />
            <g
               id="g3554"
               transform="matrix(0.35277777,0,0,-0.35277777,169.19951,75.41237)">
              <path
                 d="m 0,0 h 5.205 v 4.719 c 0,2.082 0.056,5.291 1.677,7.279 1.707,2.106 4.05,3.538 8.08,3.538 6.566,0 9.331,-0.874 9.331,-0.874 L 22.992,7.467 c 0,0 -2.169,0.586 -4.193,0.586 -2.025,0 -3.837,-0.677 -3.837,-2.565 V 0 h 8.301 l -0.58,-7.028 H 14.962 V -31.441 H 5.205 V -7.028 H 0 Z"
                 style="fill:#ffffff;fill-opacity:1;fill-rule:nonzero;stroke:none"
                 id="path3556"
                 inkscape:connector-curvature="0" />
            </g>
          </g>
        </g>
      </g>
    </g>
  </g>
</svg>
