<?xml version="1.0" encoding="UTF-8" standalone="no"?>
<!-- Created with Inkscape (http://www.inkscape.org/) -->

<svg
   xmlns:dc="http://purl.org/dc/elements/1.1/"
   xmlns:cc="http://creativecommons.org/ns#"
   xmlns:rdf="http://www.w3.org/1999/02/22-rdf-syntax-ns#"
   xmlns:svg="http://www.w3.org/2000/svg"
   xmlns="http://www.w3.org/2000/svg"
   xmlns:sodipodi="http://sodipodi.sourceforge.net/DTD/sodipodi-0.dtd"
   xmlns:inkscape="http://www.inkscape.org/namespaces/inkscape"
   width="150"
   height="150"
   viewBox="0 0 39.687501 39.6875"
   version="1.1"
   id="svg5854"
   inkscape:version="0.92.2 (5c3e80d, 2017-08-06)"
   sodipodi:docname="social-twitter-gray.svg">
  <defs
     id="defs5848" />
  <sodipodi:namedview
     id="base"
     pagecolor="#ffffff"
     bordercolor="#666666"
     borderopacity="1.0"
     inkscape:pageopacity="0.0"
     inkscape:pageshadow="2"
     inkscape:zoom="0.98994949"
     inkscape:cx="511.30342"
     inkscape:cy="145.57627"
     inkscape:document-units="mm"
     inkscape:current-layer="layer1"
     showgrid="false"
     units="px"
     fit-margin-top="0"
     fit-margin-left="0"
     fit-margin-right="0"
     fit-margin-bottom="0"
     showborder="false"
     inkscape:window-width="1920"
     inkscape:window-height="1027"
     inkscape:window-x="-8"
     inkscape:window-y="-8"
     inkscape:window-maximized="1" />
  <metadata
     id="metadata5851">
    <rdf:RDF>
      <cc:Work
         rdf:about="">
        <dc:format>image/svg+xml</dc:format>
        <dc:type
           rdf:resource="http://purl.org/dc/dcmitype/StillImage" />
        <dc:title></dc:title>
      </cc:Work>
    </rdf:RDF>
  </metadata>
  <g
     inkscape:label="Layer 1"
     inkscape:groupmode="layer"
     id="layer1"
     transform="translate(-6.0024475e-5,-257.3125)">
    <g
       transform="matrix(1.4114905,0,0,1.4114719,572.55996,528.02858)"
       id="layer1-6"
       inkscape:label="Layer 1">
      <path
         inkscape:connector-curvature="0"
         id="path3608"
         style="fill:#545454;fill-opacity:1;fill-rule:nonzero;stroke:none;stroke-width:0.35277778"
         d="m -377.52461,-163.67919 h -28.11744 V -191.797 h 28.11744 z" />
      <g
         transform="matrix(0.35277777,0,0,-0.35277777,-384.40836,-182.18863)"
         id="g3610">
        <path
           inkscape:connector-curvature="0"
           id="path3612"
           style="fill:#ffffff;fill-opacity:1;fill-rule:nonzero;stroke:none"
           d="m 0,0 c -1.497,-0.664 -3.106,-1.113 -4.793,-1.314 1.723,1.033 3.048,2.667 3.669,4.617 -1.61,-0.957 -3.396,-1.652 -5.297,-2.026 -1.524,1.623 -3.693,2.636 -6.093,2.636 -4.609,0 -8.346,-3.737 -8.346,-8.346 0,-0.655 0.074,-1.29 0.216,-1.901 -6.935,0.347 -13.084,3.669 -17.201,8.72 -0.718,-1.234 -1.129,-2.667 -1.129,-4.197 0,-2.894 1.472,-5.45 3.711,-6.945 -1.367,0.042 -2.654,0.42 -3.779,1.044 v -0.105 c 0,-4.043 2.877,-7.417 6.693,-8.184 -0.699,-0.189 -1.438,-0.294 -2.199,-0.294 -0.536,0 -1.061,0.054 -1.569,0.152 1.061,-3.316 4.143,-5.728 7.794,-5.797 -2.854,-2.238 -6.452,-3.572 -10.365,-3.572 -0.672,0 -1.336,0.041 -1.989,0.116 3.693,-2.365 8.08,-3.747 12.795,-3.747 15.349,0 23.743,12.714 23.743,23.743 0,0.361 -0.01,0.721 -0.023,1.081 C -2.535,-3.144 -1.121,-1.674 0,0" />
      </g>
    </g>
  </g>
</svg>
