<?xml version="1.0" encoding="UTF-8" standalone="no"?>
<!-- Created with Inkscape (http://www.inkscape.org/) -->

<svg
   xmlns:dc="http://purl.org/dc/elements/1.1/"
   xmlns:cc="http://creativecommons.org/ns#"
   xmlns:rdf="http://www.w3.org/1999/02/22-rdf-syntax-ns#"
   xmlns:svg="http://www.w3.org/2000/svg"
   xmlns="http://www.w3.org/2000/svg"
   xmlns:sodipodi="http://sodipodi.sourceforge.net/DTD/sodipodi-0.dtd"
   xmlns:inkscape="http://www.inkscape.org/namespaces/inkscape"
   width="116.24751mm"
   height="116.25202mm"
   viewBox="0 0 116.24749 116.25202"
   version="1.1"
   id="svg848"
   inkscape:version="0.92.2 (5c3e80d, 2017-08-06)"
   sodipodi:docname="social-media-snapchat-gray.svg">
  <defs
     id="defs842" />
  <sodipodi:namedview
     id="base"
     pagecolor="#ffffff"
     bordercolor="#666666"
     borderopacity="1.0"
     inkscape:pageopacity="0.0"
     inkscape:pageshadow="2"
     inkscape:zoom="1.979899"
     inkscape:cx="205.40743"
     inkscape:cy="410.03552"
     inkscape:document-units="mm"
     inkscape:current-layer="layer1"
     showgrid="false"
     fit-margin-top="0"
     fit-margin-left="0"
     fit-margin-right="0"
     fit-margin-bottom="0"
     showborder="false"
     inkscape:window-width="1357"
     inkscape:window-height="888"
     inkscape:window-x="498"
     inkscape:window-y="66"
     inkscape:window-maximized="0" />
  <metadata
     id="metadata845">
    <rdf:RDF>
      <cc:Work
         rdf:about="">
        <dc:format>image/svg+xml</dc:format>
        <dc:type
           rdf:resource="http://purl.org/dc/dcmitype/StillImage" />
        <dc:title></dc:title>
      </cc:Work>
    </rdf:RDF>
  </metadata>
  <g
     inkscape:label="Layer 1"
     inkscape:groupmode="layer"
     id="layer1"
     transform="translate(-9.1457833,-152.56272)">
    <path
       style="fill:#7c7c7c;stroke-width:0.26458332"
       d="M 60.639285,268.39678 C 8.6273028,261.89139 -9.4830482,195.85477 32.127524,164.43301 c 42.538098,-32.12216 102.522786,5.57027 92.062016,57.84879 -5.81621,29.06703 -34.343818,49.76797 -63.550255,46.11498 z m 14.741177,-3.57503 c 28.195048,-4.31416 48.685508,-29.79656 46.572198,-57.91823 -2.58972,-34.46133 -35.525438,-57.91145 -68.946022,-49.08934 -28.922888,7.63484 -46.3407832,37.41762 -38.888354,66.495 6.937201,27.06712 33.65651,44.73654 61.262178,40.51257 z m -10.04913,-20.01563 c -0.80036,-0.12147 -1.83039,-0.39738 -2.28894,-0.61315 -0.45855,-0.21577 -0.973873,-0.39231 -1.145151,-0.39231 -0.281061,0 -3.525086,-1.52172 -4.503404,-2.11248 -4.980831,-3.00768 -5.751245,-3.25851 -7.831354,-2.54975 -1.647782,0.56146 -3.912055,0.55501 -4.875114,-0.0139 -0.811001,-0.47906 -1.054129,-0.9667 -1.293736,-2.59482 l -0.155003,-1.05323 -1.897348,-0.43964 c -6.29165,-1.45784 -8.134307,-2.72624 -6.983239,-4.80691 0.425711,-0.76952 2.821444,-2.06985 4.477246,-2.43012 3.533756,-0.76886 10.283604,-8.49036 9.62929,-11.01543 -0.275863,-1.06459 -1.890916,-2.23481 -3.638449,-2.63632 -1.973168,-0.45334 -3.505375,-1.20649 -3.699627,-1.81852 -0.09487,-0.2989 -0.270594,-0.54347 -0.390495,-0.54347 -0.492038,0 0.02336,-2.75227 0.628766,-3.35768 1.358421,-1.35842 4.202528,-1.82081 6.162479,-1.00189 1.07112,0.44754 2.054209,-0.23191 1.146889,-0.79266 -0.139165,-0.086 -0.188145,-0.32546 -0.108844,-0.53211 0.0793,-0.20665 0.05904,-0.51349 -0.04501,-0.68186 -0.261736,-0.42349 -0.312986,-5.81906 -0.05678,-5.9774 0.114242,-0.0706 0.145362,-0.22926 0.06916,-0.35257 -0.135885,-0.21986 0.278881,-2.66181 0.584867,-3.44341 0.08545,-0.21828 0.173379,-0.51594 0.195392,-0.66146 0.142139,-0.93969 1.834936,-4.20242 2.882744,-5.55625 7.360988,-9.51083 23.172921,-9.52602 30.333411,-0.0291 1.1798,1.56475 2.64071,4.2499 2.65762,4.88466 0.006,0.23988 0.1866,0.9124 0.40047,1.49448 0.21387,0.58209 0.44813,1.89177 0.52057,2.91042 0.0724,1.01864 0.18387,2.56646 0.24762,3.43958 0.0637,0.87313 0.0198,2.42094 -0.0976,3.43959 -0.25828,2.23998 -0.34068,2.12979 1.21532,1.62504 3.96585,-1.28649 6.69787,-0.12245 6.69787,2.85378 0,2.08638 -0.80321,2.93925 -3.30295,3.50716 -3.90982,0.88826 -5.24938,2.68666 -3.78362,5.07966 2.21828,3.62158 6.60349,7.71152 9.1011,8.48829 8.148558,2.53424 6.909688,5.51507 -3.2713,7.87103 -0.44586,0.10318 -0.59532,0.32705 -0.59532,0.89169 0,2.86476 -2.89086,4.20364 -6.45453,2.98937 -1.73162,-0.59002 -2.53964,-0.38594 -5.53024,1.39676 -6.91045,4.11932 -10.53071,5.21363 -15.00273,4.53496 z m 5.95313,-2.11562 c 1.63152,-0.56838 4.39491,-1.79283 4.63021,-2.05162 0.0728,-0.08 0.60854,-0.37735 1.19062,-0.66072 0.58209,-0.28337 1.59961,-0.89081 2.26117,-1.34987 2.55661,-1.77406 4.72214,-2.25717 6.99925,-1.56147 2.8385,0.86721 3.83646,0.40617 3.83646,-1.77239 0,-1.19728 0.89598,-1.91918 2.75595,-2.22048 5.20077,-0.84248 7.374318,-2.6548 4.21502,-3.5145 -3.54749,-0.96533 -7.14728,-3.41317 -9.48451,-6.44944 -0.14553,-0.18905 -0.76764,-0.95202 -1.38249,-1.6955 -3.60859,-4.36354 -2.50089,-7.60559 3.19078,-9.33891 2.72812,-0.83081 3.3914,-2.04082 1.75675,-3.2048 -0.93191,-0.66358 -1.72475,-0.66233 -3.10569,0.005 -1.25573,0.6067 -3.87114,0.72991 -4.21229,0.19844 -0.32253,-0.50246 -0.30132,-1.47815 0.0733,-3.37344 0.54046,-2.73416 0.0586,-9.1971 -0.72171,-9.67935 -0.12589,-0.0778 -0.22889,-0.36894 -0.22889,-0.64697 0,-0.27803 -0.23813,-0.92946 -0.52917,-1.44764 -0.29104,-0.51818 -0.52917,-1.07021 -0.52917,-1.22674 0,-0.66416 -2.96982,-3.98062 -4.7625,-5.31837 -4.4114,-3.29195 -11.52878,-4.4246 -15.358552,-2.44414 -0.429564,0.22213 -0.781026,0.34274 -0.781026,0.26802 0,-0.0747 -0.681324,0.23275 -1.514055,0.68328 -7.229548,3.91133 -9.968467,10.6459 -8.676404,21.33392 0.299797,2.47992 -1.183798,3.18736 -4.229332,2.01671 -1.828057,-0.70268 -2.17742,-0.71528 -3.028505,-0.10925 -1.270752,0.90485 -0.693323,2.68334 0.972989,2.99683 7.284889,1.37052 8.133574,5.05841 2.657948,11.54985 -2.60976,3.09391 -4.935055,4.83767 -7.611059,5.7076 -3.547758,1.15333 -4.020172,2.31213 -1.193456,2.92748 0.436562,0.095 0.912812,0.26241 1.058333,0.37196 0.145521,0.10954 1.098021,0.34915 2.116667,0.53245 3.332048,0.59961 3.589681,0.79141 3.950821,2.94126 0.306856,1.82671 0.868051,2.03221 3.60189,1.31895 3.051643,-0.79617 4.386915,-0.54553 7.528538,1.41319 1.574993,0.98196 6.822203,3.53176 7.701183,3.74226 0.42101,0.10083 0.91431,0.30055 1.09621,0.44382 0.1819,0.14328 0.33073,0.19669 0.33073,0.1187 0,-0.078 0.32742,-0.0464 0.72761,0.0702 1.0191,0.29696 2.83193,0.0753 4.69635,-0.5742 z"
       id="socialmedia"
       inkscape:connector-curvature="0">
      <title
         id="title6110">snapchat</title>
    </path>
  </g>
</svg>
