<?xml version="1.0" encoding="utf-8"?>
<!-- Generator: Adobe Illustrator 17.0.0, SVG Export Plug-In . SVG Version: 6.00 Build 0)  -->
<!DOCTYPE svg PUBLIC "-//W3C//DTD SVG 1.1//EN" "http://www.w3.org/Graphics/SVG/1.1/DTD/svg11.dtd">
<svg version="1.1" id="Слой_1" xmlns="http://www.w3.org/2000/svg" xmlns:xlink="http://www.w3.org/1999/xlink" x="0px" y="0px"
	 width="35.823px" height="16px" viewBox="0 0 35.823 16" enable-background="new 0 0 35.823 16" xml:space="preserve">
<g>
	<polygon fill="#D8232D" points="27.823,0 26.423,1.4 32.023,7 0,7 0,9 32.023,9 26.423,14.6 27.823,16 35.823,8 	"/>
</g>
</svg>
