<?xml version="1.0" encoding="utf-8"?>
<!-- Generator: Adobe Illustrator 17.0.0, SVG Export Plug-In . SVG Version: 6.00 Build 0)  -->
<!DOCTYPE svg PUBLIC "-//W3C//DTD SVG 1.1//EN" "http://www.w3.org/Graphics/SVG/1.1/DTD/svg11.dtd">
<svg version="1.1" id="Слой_1" xmlns="http://www.w3.org/2000/svg" xmlns:xlink="http://www.w3.org/1999/xlink" x="0px" y="0px"
	 width="17.363px" height="21.719px" viewBox="0 0 17.363 21.719" enable-background="new 0 0 17.363 21.719" xml:space="preserve">
<g>
	<g>
		<path fill="#333E48" d="M3.594,5.134h5.432c0.281,0,0.509-0.228,0.509-0.509c0-0.281-0.228-0.509-0.509-0.509H3.594
			c-0.281,0-0.509,0.228-0.509,0.509C3.085,4.906,3.313,5.134,3.594,5.134z"/>
		<path fill="#333E48" d="M3.594,7.646h7.401c0.281,0,0.509-0.228,0.509-0.509c0-0.281-0.228-0.509-0.509-0.509H3.594
			c-0.281,0-0.509,0.228-0.509,0.509C3.085,7.418,3.313,7.646,3.594,7.646z"/>
		<path fill="#333E48" d="M1.528,1.528h11.534v7.984c0.201,0.058,0.374,0.145,0.515,0.224c0.239-0.134,0.567-0.291,0.972-0.291
			c0.014,0,0.027,0.001,0.041,0.002V1.528C14.59,0.684,13.906,0,13.062,0H1.528C0.684,0,0,0.684,0,1.528v17.024
			c0,0.844,0.684,1.528,1.528,1.528h9.252v-1.528H1.528V1.528z"/>
		<path fill="#333E48" d="M16.941,13.291c-0.114-0.101-0.243-0.216-0.271-0.303c-0.031-0.095,0.005-0.263,0.04-0.424
			c0.054-0.254,0.116-0.541-0.041-0.756c-0.158-0.218-0.452-0.247-0.712-0.274c-0.156-0.016-0.332-0.034-0.411-0.091
			c-0.077-0.056-0.147-0.217-0.21-0.358c-0.106-0.241-0.225-0.513-0.484-0.597c-0.048-0.015-0.098-0.023-0.151-0.023
			c-0.198,0-0.389,0.111-0.573,0.217c-0.145,0.084-0.295,0.172-0.4,0.172c-0.104,0-0.254-0.087-0.4-0.172
			c-0.184-0.107-0.374-0.217-0.573-0.217c-0.052,0-0.103,0.008-0.151,0.023c-0.259,0.084-0.379,0.357-0.484,0.597
			c-0.062,0.142-0.133,0.302-0.209,0.358c-0.079,0.057-0.255,0.075-0.411,0.091c-0.26,0.026-0.554,0.056-0.712,0.274
			c-0.157,0.215-0.095,0.503-0.041,0.756c0.035,0.162,0.071,0.329,0.04,0.424c-0.028,0.087-0.157,0.202-0.271,0.303
			c-0.198,0.176-0.422,0.375-0.422,0.652c0,0.277,0.224,0.476,0.422,0.652c0.114,0.101,0.243,0.216,0.271,0.303
			c0.031,0.095-0.005,0.263-0.04,0.424c-0.054,0.254-0.116,0.541,0.041,0.756c0.158,0.218,0.452,0.247,0.712,0.274
			c0.156,0.016,0.332,0.034,0.411,0.091c0.077,0.056,0.147,0.217,0.21,0.358c0.106,0.241,0.225,0.513,0.484,0.597
			c0.048,0.016,0.098,0.023,0.151,0.023c0.198,0,0.389-0.111,0.573-0.217c0.145-0.084,0.295-0.172,0.4-0.172
			c0.104,0,0.254,0.087,0.4,0.172c0.184,0.107,0.374,0.217,0.573,0.217c0.052,0,0.103-0.008,0.151-0.023
			c0.259-0.084,0.379-0.357,0.484-0.597c0.062-0.142,0.133-0.302,0.21-0.358c0.079-0.057,0.255-0.075,0.411-0.091
			c0.26-0.026,0.554-0.056,0.712-0.274c0.157-0.215,0.095-0.503,0.041-0.756c-0.035-0.162-0.071-0.329-0.04-0.424
			c0.028-0.087,0.157-0.202,0.271-0.303c0.198-0.176,0.422-0.375,0.422-0.652C17.363,13.666,17.139,13.467,16.941,13.291z
			 M13.729,15.266c-0.73,0-1.323-0.592-1.323-1.323c0-0.73,0.592-1.323,1.323-1.323c0.73,0,1.322,0.592,1.322,1.323
			C15.052,14.674,14.46,15.266,13.729,15.266z"/>
		<path fill="#333E48" d="M14.972,17.768c-0.086,0.028-0.177,0.042-0.27,0.042c-0.303,0-0.56-0.15-0.767-0.27
			c-0.059-0.034-0.15-0.087-0.205-0.111c-0.055,0.024-0.146,0.077-0.205,0.111c-0.207,0.12-0.465,0.27-0.767,0.27l0,0
			c-0.093,0-0.184-0.014-0.271-0.042c-0.256-0.083-0.419-0.257-0.536-0.445v4.186c0,0.083,0.049,0.158,0.125,0.192
			c0.076,0.033,0.164,0.019,0.226-0.038l1.428-1.313l1.428,1.313c0.039,0.036,0.09,0.055,0.142,0.055
			c0.028,0,0.057-0.006,0.084-0.018c0.076-0.033,0.125-0.109,0.125-0.192v-4.188C15.391,17.509,15.226,17.686,14.972,17.768z"/>
	</g>
</g>
</svg>
